<svg xmlns="http://www.w3.org/2000/svg" width="22" height="16" viewBox="0 0 22 16">
    <defs>
        <style>
            .prefix__cls-2{fill:none;stroke:#5f1a89;stroke-linecap:round;stroke-width:1.4px}
        </style>
    </defs>
    <g id="prefix__Group_180" data-name="Group 180" transform="translate(-1002 -331.5)">
        <g id="prefix__Rectangle_83" fill="#fff" stroke="#b99dc7" stroke-width="1.5px" data-name="Rectangle 83" transform="translate(1002 331.5)">
            <rect width="22" height="16" stroke="none" rx="3"/>
            <rect width="20.5" height="14.5" x=".75" y=".75" fill="none" rx="2.25"/>
        </g>
        <path id="prefix__Path_30" d="M1.936 1.721L0 3.954" class="prefix__cls-2" data-name="Path 30" transform="translate(1006.5 333.5)"/>
        <path id="prefix__Path_31" d="M1.936 1.721L0 3.954" class="prefix__cls-2" data-name="Path 31" transform="translate(1008.911 337.518)"/>
        <path id="prefix__Path_32" d="M3.852 0l-4.7 5.171" class="prefix__cls-2" data-name="Path 32" transform="translate(1007.47 335.445)"/>
    </g>
</svg>
