<svg xmlns="http://www.w3.org/2000/svg" width="20" height="20" viewBox="0 0 20 20">
  <g id="Group_8" data-name="Group 8" transform="translate(-192 -1115)">
    <rect id="Rectangle_41" data-name="Rectangle 41" width="20" height="12" rx="2" transform="translate(192 1123)" fill="#ddc4ec"/>
    <g id="Rectangle_42" data-name="Rectangle 42" transform="translate(192 1115)" fill="#fff" stroke="#ddc4ec" stroke-width="1">
      <path d="M5,0H15a5,5,0,0,1,5,5v9a2,2,0,0,1-2,2H2a2,2,0,0,1-2-2V5A5,5,0,0,1,5,0Z" stroke="none"/>
      <path d="M5,.5H15A4.5,4.5,0,0,1,19.5,5v9A1.5,1.5,0,0,1,18,15.5H2A1.5,1.5,0,0,1,.5,14V5A4.5,4.5,0,0,1,5,.5Z" fill="none"/>
    </g>
  </g>
</svg>
